4,2,2,928,0
8,2,2,940,0
16,2,2,970,0
4,2,2,928,0
8,2,2,940,0
16,2,2,970,0
32,2,2,1002,0
64,2,2,1078,0
128,2,2,1237,0
256,2,2,1557,0
512,2,2,2197,0
1024,2,2,3477,0
2048,2,2,6037,0
4096,2,2,11157,0
16,4,4,1858,0
32,4,4,1896,0
64,4,4,1983,0
128,4,4,2170,0
256,4,4,2542,0
512,4,4,3281,0
1024,4,4,4785,0
2048,4,4,7964,0
4096,4,4,14382,0
64,8,8,2902,0
128,8,8,3049,0
256,8,8,3448,0
512,8,8,4231,0
1024,8,8,5863,0
2048,8,8,9291,0
4096,8,8,16179,0
256,16,16,4383,0
512,16,16,5095,0
1024,16,16,6884,0
2048,16,16,10236,0
4096,16,16,17874,0
1024,32,32,7939,0
2048,32,32,11303,0
4096,32,32,18496,0
4096,64,64,19871,0

