2,2,2,24,0
4,2,2,761,0
8,2,2,766,0
16,2,2,791,0
32,2,2,815,0
64,2,2,863,0
128,2,2,959,0
256,2,2,1151,0
512,2,2,1535,0
1024,2,2,2303,0
2048,2,2,3839,0
4096,2,2,6911,0
1,4,4,24,0
2,4,4,24,0
4,4,4,761,0
8,4,4,766,0
16,4,4,1676,0
32,4,4,1707,0
64,4,4,1781,0
128,4,4,1901,0
256,4,4,2142,0
512,4,4,2624,0
1024,4,4,3662,0
2048,4,4,5801,0
4096,4,4,10125,0
1,8,8,24,0
2,8,8,24,0
4,8,8,762,0
8,8,8,767,0
16,8,8,1678,0
32,8,8,1709,0
64,8,8,2672,0
128,8,8,2798,0
256,8,8,3064,0
512,8,8,3569,0
1024,8,8,4691,0
2048,8,8,6980,0
4096,8,8,11851,0
1,16,16,24,0
2,16,16,24,0
4,16,16,762,0
8,16,16,767,0
16,16,16,1678,0
32,16,16,1709,0
64,16,16,2672,0
128,16,16,2798,0
256,16,16,3961,0
512,16,16,4472,0
1024,16,16,5593,0
2048,16,16,7943,0
4096,16,16,12974,0
1,32,32,24,0
2,32,32,24,0
4,32,32,762,0
8,32,32,767,0
16,32,32,1678,0
32,32,32,1709,0
64,32,32,2672,0
128,32,32,2798,0
256,32,32,3961,0
512,32,32,4472,0
1024,32,32,6480,0
2048,32,32,8835,0
4096,32,32,13957,0
1,64,64,24,0
2,64,64,24,0
4,64,64,762,0
8,64,64,767,0
16,64,64,1678,0
32,64,64,1709,0
64,64,64,2672,0
128,64,64,2798,0
256,64,64,3961,0
512,64,64,4472,0
1024,64,64,6480,0
2048,64,64,8835,0
4096,64,64,14807,0