Reduce pattern = 0, B = 2, Pw = 2, Ph = 2, time = 170
minimum start = 53, maximum start = 53, diff = 0
Reduce pattern = 0, B = 4, Pw = 2, Ph = 2, time = 184
minimum start = 54, maximum start = 54, diff = 0
Reduce pattern = 0, B = 8, Pw = 2, Ph = 2, time = 210
minimum start = 54, maximum start = 54, diff = 0
Reduce pattern = 0, B = 16, Pw = 2, Ph = 2, time = 258
minimum start = 54, maximum start = 54, diff = 0
Reduce pattern = 0, B = 32, Pw = 2, Ph = 2, time = 354
minimum start = 54, maximum start = 54, diff = 0
Reduce pattern = 0, B = 64, Pw = 2, Ph = 2, time = 546
minimum start = 54, maximum start = 54, diff = 0
Reduce pattern = 0, B = 128, Pw = 2, Ph = 2, time = 930
minimum start = 54, maximum start = 54, diff = 0
Reduce pattern = 0, B = 256, Pw = 2, Ph = 2, time = 1698
minimum start = 54, maximum start = 54, diff = 0
Reduce pattern = 0, B = 512, Pw = 2, Ph = 2, time = 3234
minimum start = 54, maximum start = 54, diff = 0
Reduce pattern = 0, B = 1024, Pw = 2, Ph = 2, time = 6306
minimum start = 54, maximum start = 54, diff = 0
Reduce pattern = 0, B = 2048, Pw = 2, Ph = 2, time = 12450
minimum start = 54, maximum start = 54, diff = 0
Reduce pattern = 0, B = 2, Pw = 4, Ph = 4, time = 758
minimum start = 57, maximum start = 57, diff = 0
Reduce pattern = 0, B = 4, Pw = 4, Ph = 4, time = 796
minimum start = 58, maximum start = 58, diff = 0
Reduce pattern = 0, B = 8, Pw = 4, Ph = 4, time = 958
minimum start = 58, maximum start = 58, diff = 0
Reduce pattern = 0, B = 16, Pw = 4, Ph = 4, time = 1204
minimum start = 58, maximum start = 58, diff = 0
Reduce pattern = 0, B = 32, Pw = 4, Ph = 4, time = 1686
minimum start = 58, maximum start = 58, diff = 0
Reduce pattern = 0, B = 64, Pw = 4, Ph = 4, time = 2646
minimum start = 58, maximum start = 58, diff = 0
Reduce pattern = 0, B = 128, Pw = 4, Ph = 4, time = 4566
minimum start = 58, maximum start = 58, diff = 0
Reduce pattern = 0, B = 256, Pw = 4, Ph = 4, time = 8406
minimum start = 58, maximum start = 58, diff = 0
Reduce pattern = 0, B = 512, Pw = 4, Ph = 4, time = 16086
minimum start = 58, maximum start = 58, diff = 0
Reduce pattern = 0, B = 2, Pw = 8, Ph = 8, time = 3110
minimum start = 65, maximum start = 65, diff = 0
Reduce pattern = 0, B = 4, Pw = 8, Ph = 8, time = 3244
minimum start = 66, maximum start = 66, diff = 0
Reduce pattern = 0, B = 8, Pw = 8, Ph = 8, time = 3932
minimum start = 66, maximum start = 66, diff = 0
Reduce pattern = 0, B = 16, Pw = 8, Ph = 8, time = 4985
minimum start = 66, maximum start = 66, diff = 0
Reduce pattern = 0, B = 32, Pw = 8, Ph = 8, time = 7007
minimum start = 66, maximum start = 66, diff = 0
Reduce pattern = 0, B = 64, Pw = 8, Ph = 8, time = 11044
minimum start = 66, maximum start = 66, diff = 0
Reduce pattern = 0, B = 128, Pw = 8, Ph = 8, time = 19110
minimum start = 66, maximum start = 66, diff = 0
Reduce pattern = 0, B = 2, Pw = 16, Ph = 16, time = 12518
minimum start = 84, maximum start = 84, diff = 0
Reduce pattern = 0, B = 4, Pw = 16, Ph = 16, time = 13036
minimum start = 85, maximum start = 85, diff = 0
Reduce pattern = 0, B = 8, Pw = 16, Ph = 16, time = 15795
minimum start = 85, maximum start = 85, diff = 0
Reduce pattern = 0, B = 16, Pw = 16, Ph = 16, time = 20095
minimum start = 85, maximum start = 85, diff = 0
Reduce pattern = 0, B = 32, Pw = 16, Ph = 16, time = 28148
minimum start = 85, maximum start = 85, diff = 0
Reduce pattern = 0, B = 2, Pw = 32, Ph = 32, time = 50150
minimum start = 116, maximum start = 116, diff = 0
Reduce pattern = 0, B = 4, Pw = 32, Ph = 32, time = 52204
minimum start = 117, maximum start = 117, diff = 0
Reduce pattern = 0, B = 8, Pw = 32, Ph = 32, time = 63257
minimum start = 117, maximum start = 117, diff = 0
Reduce pattern = 0, B = 2, Pw = 64, Ph = 64, time = 200678
minimum start = 180, maximum start = 180, diff = 0
